<?xml version="1.0" encoding="UTF-8" standalone="no"?>
<!-- Generator: Gravit.io -->

<svg
   xmlns:dc="http://purl.org/dc/elements/1.1/"
   xmlns:cc="http://creativecommons.org/ns#"
   xmlns:rdf="http://www.w3.org/1999/02/22-rdf-syntax-ns#"
   xmlns:svg="http://www.w3.org/2000/svg"
   xmlns="http://www.w3.org/2000/svg"
   xmlns:sodipodi="http://sodipodi.sourceforge.net/DTD/sodipodi-0.dtd"
   xmlns:inkscape="http://www.inkscape.org/namespaces/inkscape"
   style="isolation:isolate"
   viewBox="0 0 160 160"
   width="160"
   height="160"
   version="1.1"
   id="svg33"
   sodipodi:docname="pate-tomate.svg"
   inkscape:version="0.92.4 (unknown)">
  <metadata
     id="metadata37">
    <rdf:RDF>
      <cc:Work
         rdf:about="">
        <dc:format>image/svg+xml</dc:format>
        <dc:type
           rdf:resource="http://purl.org/dc/dcmitype/StillImage" />
      </cc:Work>
    </rdf:RDF>
  </metadata>
  <sodipodi:namedview
     pagecolor="#ffffff"
     bordercolor="#666666"
     borderopacity="1"
     objecttolerance="10"
     gridtolerance="10"
     guidetolerance="10"
     inkscape:pageopacity="0"
     inkscape:pageshadow="2"
     inkscape:window-width="1920"
     inkscape:window-height="1016"
     id="namedview35"
     showgrid="false"
     inkscape:zoom="1.475"
     inkscape:cx="82.711864"
     inkscape:cy="131.52542"
     inkscape:window-x="0"
     inkscape:window-y="27"
     inkscape:window-maximized="1"
     inkscape:current-layer="svg33" />
  <defs
     id="defs5">
    <clipPath
       id="_clipPath_2jbkEIkvmnkG6E85XRoSqArUfAjNCg3x">
      <rect
         width="160"
         height="160"
         id="rect2" />
    </clipPath>
  </defs>
  <g
     id="g29">
    <g
       id="g27">
      <path
         style="fill:#151717;fill-opacity:0.6"
         inkscape:connector-curvature="0"
         id="path9"
         d="m 122.959,119.149 c 11.572,-9.648 19.363,-38.79 16.534,-47.963 -0.755,-8.904 -7.457,-18.93 -9.411,-21.574 C 127.45,46.051 119.103,35.79 112.243,33.035 106.947,29.868 88.05,27.323 85.235,27.323 53.963,27.531 39.24,37.144 28.218,59.085 c -6.868,13.67 -4.822,41.131 -4.168,42.457 1.426,2.894 3.421,16.686 19.005,26.557 47.374,17.4 74.334,-2.858 79.904,-8.95 z" />
      <path
         style="fill:#ecc46d"
         inkscape:connector-curvature="0"
         id="path11"
         d="m 119.63,116.826 c 11.572,-9.648 19.364,-38.789 16.535,-47.963 -0.755,-8.903 -7.457,-18.93 -9.411,-21.574 -2.633,-3.56 -10.98,-13.822 -17.839,-16.576 C 103.619,27.545 84.721,25 81.907,25 50.635,25.208 35.912,34.821 24.889,56.762 c -6.868,13.67 -4.821,41.131 -4.168,42.457 1.427,2.894 3.421,16.686 19.006,26.557 47.373,17.401 74.333,-2.858 79.903,-8.95 z" />
      <path
         style="fill:#e19f53"
         inkscape:connector-curvature="0"
         id="path13"
         d="m 99.817,32.379 c 2.4,-0.003 -10.483,-3.486 -22.82,-1.666 -12.337,1.819 -19.634,3.986 -24.323,6.175 -4.689,2.189 -7.336,0.994 -12.947,6.423 -5.611,5.428 -11.73,14.33 -12.333,20.087 -0.603,5.756 -5.879,16.893 -3.552,22 2.326,5.106 0.253,14.485 1.913,17.354 1.66,2.868 3.33,11.878 9.975,14.074 6.645,2.196 12.023,7.6 20.087,8.95 8.064,1.349 9.509,2.339 18.994,1.299 q 9.484,-1.041 -5.193,-1.299 -13.861,-1.696 -18.994,-3.757 c -5.132,-2.062 -12.026,-6.976 -13.254,-8.882 -1.228,-1.907 -7.692,-5.286 -8.746,-14.895 -1.053,-9.608 -3.777,-17.489 0,-23.366 3.778,-5.878 3.453,-9.72 5.329,-14.5 1.877,-4.78 -5.289,0.724 5.774,-8.183 11.063,-8.908 10.969,-11.884 21.146,-15.305 10.176,-3.421 7.735,-5.286 16.124,-4.509 8.389,0.777 20.42,0.002 22.82,0 z" />
      <path
         style="fill:#e19f53"
         inkscape:connector-curvature="0"
         id="path15"
         d="m 124.823,56.019 c 2.639,2.85 9.469,9.6 7.379,14.484 -2.091,4.884 -1.661,17.834 -2.733,19.54 -1.072,1.707 -3.233,7.295 -4.646,9.176 -1.413,1.882 -0.713,3.154 -5.193,7.816 -4.479,4.662 -4.401,6.181 -8.882,7.058 -4.48,0.877 2.39,-1.785 3.007,-2.869 0.617,-1.085 4.277,-6.428 5.875,-7.653 1.599,-1.224 5.09,-5.791 6.15,-9.975 1.059,-4.183 4.137,-6.922 3.689,-9.838 -0.448,-2.916 2.163,-13.128 0,-16.671 -2.163,-3.543 -7.285,-13.918 -4.646,-11.068 z" />
      <path
         style="fill:#bd2f2f"
         inkscape:connector-curvature="0"
         id="path17"
         d="m 39.727,116.826 q 13.767,8.471 26.885,8.95 c 13.118,0.479 14.29,-2.665 18.623,0 4.333,2.665 7.886,9.086 11.166,2.323 3.279,-6.764 -3.28,-5.124 5.466,-8.95 8.745,-3.826 11.204,3.826 15.85,-5.466 4.646,-9.292 -0.722,1.68 5.242,-12.141 5.963,-13.822 13.616,-16.281 10.063,-20.381 -3.553,-4.099 -0.96,0.82 -2.94,-6.832 -1.979,-7.652 4.033,-3.826 -1.433,-11.751 -5.466,-7.926 -2.46,-2.155 -10.932,-12.966 -8.472,-10.811 -2.732,-8.898 -15.85,-13.544 -13.119,-4.646 -2.655,-6.885 -16.632,-5.355 -13.977,1.529 -6.052,-0.657 -18.623,3.442 -12.572,4.1 -7.926,-1.093 -17.764,5.739 -9.839,6.833 -6.286,-2.154 -12.025,9.718 -5.739,11.872 -1.64,3.4 -5.739,12.966 -4.099,9.565 -3.553,4.646 -3.553,15.031 0,10.385 -10.516,11.205 -3.481,19.677 7.034,8.472 5.667,2.828 9.22,9.749 q 3.553,6.922 6.457,9.791 z" />
      <path
         style="fill:#8c1e1e"
         inkscape:connector-curvature="0"
         id="path19"
         d="m 54.04,119.149 c -1.639,-1.366 -13.049,1.913 -14.313,-4.373 -1.264,-6.285 2.289,-3.552 -2.084,-9.292 -4.373,-5.739 -4.919,-4.099 -6.559,-9.838 -1.64,-5.739 -1.913,-20.497 0,-14.758 1.913,5.739 -2.733,1.093 1.64,8.746 4.372,7.652 6.081,3.046 7.003,9.585 0.922,6.539 -4.65,4.079 3.328,9.818 7.979,5.739 9.892,1.367 13.445,5.739 3.553,4.373 -0.82,5.739 -2.46,4.373 z" />
      <path
         style="fill:#8c1e1e"
         inkscape:connector-curvature="0"
         id="path21"
         d="m 115.399,102.729 c 0.82,-1.796 5.837,-8.355 7.155,-11.908 1.317,-3.553 -1.591,2.46 0,-6.832 1.591,-9.292 5.452,-12.299 3.795,-15.305 -1.658,-3.006 -0.74,-4.676 -3.795,-7.12 -3.055,-2.445 2.411,0.015 -5.242,-5.724 -7.652,-5.74 -7.766,-13.938 -8.802,-10.932 -1.036,3.006 -6.07,0.305 0,5.892 6.069,5.586 9.896,9.109 10.715,10.764 0.82,1.654 -3.279,-4.358 0,5.617 3.28,9.975 5.017,4.236 3.329,11.615 -1.689,7.379 0.771,7.379 -3.329,12.025 -4.099,4.646 0.547,3.826 -3.826,8.199 -4.372,4.372 3.263,6.927 -3.561,9.203 -6.824,2.275 -8.851,6.648 -3.328,4.735 5.523,-1.914 9.622,0.095 8.802,-4.735 -0.819,-4.831 -2.733,-3.697 -1.913,-5.494 z" />
      <path
         style="fill:#8c1e1e"
         inkscape:connector-curvature="0"
         id="path23"
         d="M 71.804,38.255 Q 59.506,37.981 56.227,40.988 c -3.28,3.006 -13.392,2.732 -7.106,4.646 6.286,1.913 3.006,2.732 9.292,0 6.286,-2.733 2.186,-3.553 9.565,-4.646 7.379,-1.094 13.665,-4.373 3.826,-2.733 z" />
      <path
         style="fill:#8c1e1e"
         inkscape:connector-curvature="0"
         id="path25"
         d="m 94.214,128.099 c 1.64,-2.118 -1.093,-0.751 0,-4.031 1.093,-3.279 2.187,-7.925 0,-4.919 -2.186,3.006 -1.639,11.067 0,8.95 z" />
    </g>
  </g>
</svg>
